531492 258971 470
55895 686455 509
862833 956839 507
752373 235952 509
92610 220509 386
598902 921656 525
721187 564247 509
378175 782741 509
777879 403520 509
125894 634214 509
810866 397885 509
307224 909871 525
985344 469288 525
104323 380798 443
971888 251653 525
734710 510654 509
766446 671916 504
941282 360290 525
364319 310546 441
8597 804965 509
471783 317082 449
422032 747942 509
260081 53406 443
80110 764793 509
830303 55203 509
667195 326520 509
622814 695271 509
76375 290856 443
632240 579729 509
126559 878806 525
589569 311695 470
373227 978523 525
126161 738593 509
982126 372668 525
762090 111031 509
66793 730781 509
510670 614650 470
591592 660196 509
999081 793524 525
461264 785334 509
759409 360266 509
64791 794377 509
522547 647588 509
917018 169850 525
846762 354302 525
931211 68208 525
176374 801430 509
4773 40868 324
379022 952944 525
924376 713781 525
224588 397733 443
677880 671418 385
126269 240200 443
636729 65310 509
671330 305432 509
20863 503629 449
638933 960788 525
782956 852489 525
197852 78102 383
523069 879849 525
471356 357197 449
584953 889744 525
284624 180345 443
733355 576229 509
313191 350621 441
616499 970975 525
856651 573638 525
641881 538247 509
55486 159711 383
488853 793201 509
717543 276853 509
396477 256450 441
263088 496099 449
597788 115799 470
515649 191701 470
375754 417919 449
726088 62849 509
14176 409218 443
613885 461386 470
797147 309762 509
617706 416965 470
218531 139959 386
161453 533415 470
112421 168346 383
562447 896751 525
409551 128089 443
630398 828370 504
358720 795153 509
954736 385665 525
140742 42066 354
987483 447560 525
137836 612935 470
66301 91939 351
244129 288002 407
274456 873930 525
58795 196071 383
996938 427108 525
248112 714615 509
434850 555905 470
838540 678404 525
516849 803823 509
419488 615864 470
147479 414526 449
824453 669718 504
561545 560376 346
271537 81674 443
579898 256111 470
800347 825349 450
137240 394864 443
64111 372553 443
31533 139309 354
303630 324571 384
254651 112332 443
639960 95296 509
466534 777655 509
567682 317048 470
651421 263602 509
58336 32584 340
845249 597327 525
432783 452756 400
833623 717788 468
601979 490524 470
327795 834573 509
550366 305908 470
474932 949465 525
544207 563836 452
256004 518682 470
189381 604490 470
402556 610158 470
87418 633027 509
875322 819254 525
956475 89452 525
541732 490557 470
116414 676348 509
887481 261970 525
714116 779332 468
766990 996831 525
82126 907006 525
969063 385598 525
510277 94712 449
667504 206919 509
95510 422248 449
673340 231269 509
545626 5802 470
259568 637687 509
139599 984879 525
781309 370330 509
799406 690522 504
19887 62980 340
986414 8351 525
347324 222386 443
887308 939306 476
220643 100532 386
938404 237511 525
741913 538617 509
828410 937666 525
167838 41078 383
403686 715878 509
504109 211925 449
332973 296960 384
282353 16240 443
829514 252375 509
943127 385386 525
511945 219786 470
586397 622520 447
88082 508 351
588499 617188 447
216538 694344 509
7309 314349 443
965640 405369 525
273090 504997 449
591005 232777 470
451493 916858 525
359089 494974 449
402602 332009 441
691722 139635 509
381244 124676 443
358394 666124 509
132271 569585 470
123142 439274 449
797404 154620 509
454663 949100 525
708917 50146 509
643332 286598 509
59267 733388 509
409904 26012 443
45961 736379 509
767787 228081 509
72970 243927 443
489644 415363 444
578639 36822 470
641895 149970 509
753575 652544 504
878198 717532 525
103214 504763 449
294973 601521 470
476991 802980 509
698303 770506 504
535139 574403 452
874716 510590 525
209141 343257 443
508859 492254 426
707338 138522 509
945458 957799 414
391876 206078 443
982713 244380 525
490668 313884 449
525378 409595 470
7734 929354 525
346809 359234 379
771212 691133 504
543038 35057 470
268184 241381 407
646943 759982 504
627131 17857 509
621513 253069 470
704767 499210 509
570296 821159 509
670606 709624 504
775663 408421 509
878311 522363 525
851951 266015 525
435470 273111 449
846807 816616 525
380555 466938 449
460636 384344 449
415261 109415 449
715378 776395 468
440102 328535 449
106680 956545 525
495463 362558 449
637909 754717 504
531850 392871 470
431178 820322 509
415067 869938 525
222931 769658 509
158074 350084 443
593582 463740 470
516080 785400 509
764862 22603 509
652807 777730 504
838134 362121 525
187090 348955 443
948727 118803 525
365201 642859 509
227956 464256 449
36792 528000 470
199133 889430 525
920734 242192 525
407029 818173 509
